{
  "swagger": "2.0",
  "info": {
    "title": "gitlab.ozon.ru/messenger/messenger-settings/api/v1/api.proto",
    "version": "version not set"
  },
  "tags": [
    {
      "name": "SettingsV1"
    }
  ],
  "consumes": [
    "application/json"
  ],
  "produces": [
    "application/json"
  ],
  "paths": {
    "/v1/all": {
      "get": {
        "operationId": "SettingsV1_GetAll",
        "responses": {
          "200": {
            "description": "A successful response.",
            "schema": {
              "$ref": "#/definitions/v1GetAllResponse"
            }
          },
          "default": {
            "description": "An unexpected error response.",
            "schema": {
              "$ref": "#/definitions/rpcStatus"
            }
          }
        },
        "parameters": [
          {
            "name": "user.type",
            "in": "query",
            "required": false,
            "type": "string",
            "enum": [
              "InvalidUser",
              "Customer",
              "Seller",
              "Support",
              "Courier",
              "ChatBot",
              "TravelSupport",
              "OProfitUser",
              "NotificationUser",
              "OperatorTPVZ",
              "Principal"
            ],
            "default": "InvalidUser"
          },
          {
            "name": "user.id",
            "in": "query",
            "required": false,
            "type": "string"
          },
          {
            "name": "chatId",
            "in": "query",
            "required": false,
            "type": "string"
          },
          {
            "name": "chatType",
            "description": " - Buyer_Support: previously known as CCRM\n - Buyer_Buyer: use Customer_Customer\n - Buyer_Seller: previously known as CS",
            "in": "query",
            "required": false,
            "type": "string",
            "enum": [
              "InvalidChat",
              "Buyer_Support",
              "Buyer_Buyer",
              "Buyer_Seller",
              "Seller_Support",
              "Buyer_Travel",
              "OProfit",
              "Notification_Orders",
              "Notification_Subscriptions",
              "Notification_Promo",
              "Notification_Questions",
              "TurboPVZ_Support",
              "Customer_Customer",
              "Principal_Support"
            ],
            "default": "InvalidChat"
          }
        ],
        "tags": [
          "SettingsV1"
        ]
      }
    },
    "/v1/chats": {
      "get": {
        "operationId": "SettingsV1_GetChats",
        "responses": {
          "200": {
            "description": "A successful response.",
            "schema": {
              "$ref": "#/definitions/messenger_settingsv1GetChatsResponse"
            }
          },
          "default": {
            "description": "An unexpected error response.",
            "schema": {
              "$ref": "#/definitions/rpcStatus"
            }
          }
        },
        "parameters": [
          {
            "name": "chatsIds",
            "in": "query",
            "required": false,
            "type": "array",
            "items": {
              "type": "string"
            },
            "collectionFormat": "multi"
          }
        ],
        "tags": [
          "SettingsV1"
        ]
      },
      "post": {
        "operationId": "SettingsV1_SetChats",
        "responses": {
          "200": {
            "description": "A successful response.",
            "schema": {
              "$ref": "#/definitions/v1SetChatsResponse"
            }
          },
          "default": {
            "description": "An unexpected error response.",
            "schema": {
              "$ref": "#/definitions/rpcStatus"
            }
          }
        },
        "parameters": [
          {
            "name": "body",
            "in": "body",
            "required": true,
            "schema": {
              "$ref": "#/definitions/v1SetChatsRequest"
            }
          }
        ],
        "tags": [
          "SettingsV1"
        ]
      }
    },
    "/v1/chats-types": {
      "get": {
        "operationId": "SettingsV1_GetChatsTypes",
        "responses": {
          "200": {
            "description": "A successful response.",
            "schema": {
              "$ref": "#/definitions/v1GetChatsTypesResponse"
            }
          },
          "default": {
            "description": "An unexpected error response.",
            "schema": {
              "$ref": "#/definitions/rpcStatus"
            }
          }
        },
        "parameters": [
          {
            "name": "chatsTypes",
            "description": " - Buyer_Support: previously known as CCRM\n - Buyer_Buyer: use Customer_Customer\n - Buyer_Seller: previously known as CS",
            "in": "query",
            "required": false,
            "type": "array",
            "items": {
              "type": "string",
              "enum": [
                "InvalidChat",
                "Buyer_Support",
                "Buyer_Buyer",
                "Buyer_Seller",
                "Seller_Support",
                "Buyer_Travel",
                "OProfit",
                "Notification_Orders",
                "Notification_Subscriptions",
                "Notification_Promo",
                "Notification_Questions",
                "TurboPVZ_Support",
                "Customer_Customer",
                "Principal_Support"
              ]
            },
            "collectionFormat": "multi"
          },
          {
            "name": "usersTypes",
            "in": "query",
            "required": false,
            "type": "array",
            "items": {
              "type": "string",
              "enum": [
                "InvalidUser",
                "Customer",
                "Seller",
                "Support",
                "Courier",
                "ChatBot",
                "TravelSupport",
                "OProfitUser",
                "NotificationUser",
                "OperatorTPVZ",
                "Principal"
              ]
            },
            "collectionFormat": "multi"
          }
        ],
        "tags": [
          "SettingsV1"
        ]
      },
      "post": {
        "operationId": "SettingsV1_SetChatsTypes",
        "responses": {
          "200": {
            "description": "A successful response.",
            "schema": {
              "$ref": "#/definitions/v1SetChatsTypesResponse"
            }
          },
          "default": {
            "description": "An unexpected error response.",
            "schema": {
              "$ref": "#/definitions/rpcStatus"
            }
          }
        },
        "parameters": [
          {
            "name": "body",
            "in": "body",
            "required": true,
            "schema": {
              "$ref": "#/definitions/v1SetChatsTypesRequest"
            }
          }
        ],
        "tags": [
          "SettingsV1"
        ]
      }
    },
    "/v1/chats-types/settings": {
      "delete": {
        "operationId": "SettingsV1_DeleteChatTypeSettings",
        "responses": {
          "200": {
            "description": "A successful response.",
            "schema": {
              "$ref": "#/definitions/v1DeleteChatTypeSettingsResponse"
            }
          },
          "default": {
            "description": "An unexpected error response.",
            "schema": {
              "$ref": "#/definitions/rpcStatus"
            }
          }
        },
        "parameters": [
          {
            "name": "chatType",
            "description": " - Buyer_Support: previously known as CCRM\n - Buyer_Buyer: use Customer_Customer\n - Buyer_Seller: previously known as CS",
            "in": "query",
            "required": false,
            "type": "string",
            "enum": [
              "InvalidChat",
              "Buyer_Support",
              "Buyer_Buyer",
              "Buyer_Seller",
              "Seller_Support",
              "Buyer_Travel",
              "OProfit",
              "Notification_Orders",
              "Notification_Subscriptions",
              "Notification_Promo",
              "Notification_Questions",
              "TurboPVZ_Support",
              "Customer_Customer",
              "Principal_Support"
            ],
            "default": "InvalidChat"
          },
          {
            "name": "userType",
            "in": "query",
            "required": false,
            "type": "string",
            "enum": [
              "InvalidUser",
              "Customer",
              "Seller",
              "Support",
              "Courier",
              "ChatBot",
              "TravelSupport",
              "OProfitUser",
              "NotificationUser",
              "OperatorTPVZ",
              "Principal"
            ],
            "default": "InvalidUser"
          },
          {
            "name": "settingNames",
            "in": "query",
            "required": false,
            "type": "array",
            "items": {
              "type": "string"
            },
            "collectionFormat": "multi"
          }
        ],
        "tags": [
          "SettingsV1"
        ]
      }
    },
    "/v1/chats/settings": {
      "delete": {
        "operationId": "SettingsV1_DeleteChatSettings",
        "responses": {
          "200": {
            "description": "A successful response.",
            "schema": {
              "$ref": "#/definitions/v1DeleteChatSettingsResponse"
            }
          },
          "default": {
            "description": "An unexpected error response.",
            "schema": {
              "$ref": "#/definitions/rpcStatus"
            }
          }
        },
        "parameters": [
          {
            "name": "chatId",
            "in": "query",
            "required": false,
            "type": "string"
          },
          {
            "name": "settingNames",
            "in": "query",
            "required": false,
            "type": "array",
            "items": {
              "type": "string"
            },
            "collectionFormat": "multi"
          }
        ],
        "tags": [
          "SettingsV1"
        ]
      }
    },
    "/v1/users": {
      "get": {
        "operationId": "SettingsV1_GetUsers",
        "responses": {
          "200": {
            "description": "A successful response.",
            "schema": {
              "$ref": "#/definitions/v1GetUsersResponse"
            }
          },
          "default": {
            "description": "An unexpected error response.",
            "schema": {
              "$ref": "#/definitions/rpcStatus"
            }
          }
        },
        "tags": [
          "SettingsV1"
        ]
      },
      "post": {
        "operationId": "SettingsV1_SetUsers",
        "responses": {
          "200": {
            "description": "A successful response.",
            "schema": {
              "$ref": "#/definitions/v1SetUsersResponse"
            }
          },
          "default": {
            "description": "An unexpected error response.",
            "schema": {
              "$ref": "#/definitions/rpcStatus"
            }
          }
        },
        "parameters": [
          {
            "name": "body",
            "in": "body",
            "required": true,
            "schema": {
              "$ref": "#/definitions/v1SetUsersRequest"
            }
          }
        ],
        "tags": [
          "SettingsV1"
        ]
      }
    },
    "/v1/users-chats": {
      "get": {
        "operationId": "SettingsV1_GetUsersChats",
        "responses": {
          "200": {
            "description": "A successful response.",
            "schema": {
              "$ref": "#/definitions/v1GetUsersChatsResponse"
            }
          },
          "default": {
            "description": "An unexpected error response.",
            "schema": {
              "$ref": "#/definitions/rpcStatus"
            }
          }
        },
        "tags": [
          "SettingsV1"
        ]
      },
      "post": {
        "operationId": "SettingsV1_SetUsersChats",
        "responses": {
          "200": {
            "description": "A successful response.",
            "schema": {
              "$ref": "#/definitions/v1SetUsersChatsResponse"
            }
          },
          "default": {
            "description": "An unexpected error response.",
            "schema": {
              "$ref": "#/definitions/rpcStatus"
            }
          }
        },
        "parameters": [
          {
            "name": "body",
            "in": "body",
            "required": true,
            "schema": {
              "$ref": "#/definitions/v1SetUsersChatsRequest"
            }
          }
        ],
        "tags": [
          "SettingsV1"
        ]
      }
    },
    "/v1/users-chats/settings": {
      "delete": {
        "operationId": "SettingsV1_DeleteUsersChatsSettings",
        "responses": {
          "200": {
            "description": "A successful response.",
            "schema": {
              "$ref": "#/definitions/v1DeleteUsersChatsSettingsResponse"
            }
          },
          "default": {
            "description": "An unexpected error response.",
            "schema": {
              "$ref": "#/definitions/rpcStatus"
            }
          }
        },
        "parameters": [
          {
            "name": "user.type",
            "in": "query",
            "required": false,
            "type": "string",
            "enum": [
              "InvalidUser",
              "Customer",
              "Seller",
              "Support",
              "Courier",
              "ChatBot",
              "TravelSupport",
              "OProfitUser",
              "NotificationUser",
              "OperatorTPVZ",
              "Principal"
            ],
            "default": "InvalidUser"
          },
          {
            "name": "user.id",
            "in": "query",
            "required": false,
            "type": "string"
          },
          {
            "name": "chatId",
            "in": "query",
            "required": false,
            "type": "string"
          },
          {
            "name": "settingNames",
            "in": "query",
            "required": false,
            "type": "array",
            "items": {
              "type": "string"
            },
            "collectionFormat": "multi"
          }
        ],
        "tags": [
          "SettingsV1"
        ]
      }
    },
    "/v1/users/settings": {
      "delete": {
        "operationId": "SettingsV1_DeleteUserSettings",
        "responses": {
          "200": {
            "description": "A successful response.",
            "schema": {
              "$ref": "#/definitions/v1DeleteUserSettingsResponse"
            }
          },
          "default": {
            "description": "An unexpected error response.",
            "schema": {
              "$ref": "#/definitions/rpcStatus"
            }
          }
        },
        "parameters": [
          {
            "name": "user.type",
            "in": "query",
            "required": false,
            "type": "string",
            "enum": [
              "InvalidUser",
              "Customer",
              "Seller",
              "Support",
              "Courier",
              "ChatBot",
              "TravelSupport",
              "OProfitUser",
              "NotificationUser",
              "OperatorTPVZ",
              "Principal"
            ],
            "default": "InvalidUser"
          },
          {
            "name": "user.id",
            "in": "query",
            "required": false,
            "type": "string"
          },
          {
            "name": "settingNames",
            "in": "query",
            "required": false,
            "type": "array",
            "items": {
              "type": "string"
            },
            "collectionFormat": "multi"
          }
        ],
        "tags": [
          "SettingsV1"
        ]
      }
    }
  },
  "definitions": {
    "GetUsersChatsRequestUserChatsIDs": {
      "type": "object",
      "properties": {
        "user": {
          "$ref": "#/definitions/v2User"
        },
        "chatsIds": {
          "type": "array",
          "items": {
            "type": "string"
          }
        }
      }
    },
    "ValueInt64s": {
      "type": "object",
      "properties": {
        "values": {
          "type": "array",
          "items": {
            "type": "string",
            "format": "int64"
          }
        }
      }
    },
    "ValueStrings": {
      "type": "object",
      "properties": {
        "values": {
          "type": "array",
          "items": {
            "type": "string"
          }
        }
      }
    },
    "messenger_settingsv1GetChatsResponse": {
      "type": "object",
      "properties": {
        "chatSettingsByChatsIds": {
          "type": "object",
          "additionalProperties": {
            "$ref": "#/definitions/v1ChatSetting"
          }
        }
      }
    },
    "messenger_settingsv1Value": {
      "type": "object",
      "properties": {
        "bool": {
          "type": "boolean"
        },
        "int": {
          "type": "string",
          "format": "int64"
        },
        "float": {
          "type": "number",
          "format": "float"
        },
        "string": {
          "type": "string"
        },
        "strings": {
          "$ref": "#/definitions/ValueStrings"
        },
        "int64s": {
          "$ref": "#/definitions/ValueInt64s"
        }
      }
    },
    "protobufAny": {
      "type": "object",
      "properties": {
        "@type": {
          "type": "string"
        }
      },
      "additionalProperties": {}
    },
    "rpcStatus": {
      "type": "object",
      "properties": {
        "code": {
          "type": "integer",
          "format": "int32"
        },
        "message": {
          "type": "string"
        },
        "details": {
          "type": "array",
          "items": {
            "$ref": "#/definitions/protobufAny"
          }
        }
      }
    },
    "v1ChatSetting": {
      "type": "object",
      "properties": {
        "chatId": {
          "type": "string"
        },
        "settings": {
          "$ref": "#/definitions/v1Settings"
        }
      }
    },
    "v1ChatTypeSetting": {
      "type": "object",
      "properties": {
        "chatType": {
          "$ref": "#/definitions/v2ChatType"
        },
        "userType": {
          "$ref": "#/definitions/v2UserType"
        },
        "settings": {
          "$ref": "#/definitions/v1Settings"
        }
      }
    },
    "v1DeleteChatSettingsResponse": {
      "type": "object",
      "properties": {
        "timestamp": {
          "type": "string",
          "format": "date-time"
        },
        "deleted": {
          "type": "array",
          "items": {
            "type": "string"
          }
        }
      }
    },
    "v1DeleteChatTypeSettingsResponse": {
      "type": "object",
      "properties": {
        "timestamp": {
          "type": "string",
          "format": "date-time"
        },
        "deleted": {
          "type": "array",
          "items": {
            "type": "string"
          }
        }
      }
    },
    "v1DeleteUserSettingsResponse": {
      "type": "object",
      "properties": {
        "timestamp": {
          "type": "string",
          "format": "date-time"
        },
        "deleted": {
          "type": "array",
          "items": {
            "type": "string"
          }
        }
      }
    },
    "v1DeleteUsersChatsSettingsResponse": {
      "type": "object",
      "properties": {
        "timestamp": {
          "type": "string",
          "format": "date-time"
        },
        "deleted": {
          "type": "array",
          "items": {
            "type": "string"
          }
        }
      }
    },
    "v1GetAllResponse": {
      "type": "object",
      "properties": {
        "chatType": {
          "$ref": "#/definitions/v1ChatTypeSetting"
        },
        "chat": {
          "$ref": "#/definitions/v1ChatSetting"
        },
        "user": {
          "$ref": "#/definitions/v1UserSetting"
        },
        "userChat": {
          "$ref": "#/definitions/v1UserChatSetting"
        }
      }
    },
    "v1GetChatsTypesResponse": {
      "type": "object",
      "properties": {
        "chatTypesSettings": {
          "type": "array",
          "items": {
            "$ref": "#/definitions/v1ChatTypeSetting"
          }
        }
      }
    },
    "v1GetUsersChatsResponse": {
      "type": "object",
      "properties": {
        "usersChatsSettings": {
          "type": "array",
          "items": {
            "$ref": "#/definitions/v1UserChatSetting"
          }
        }
      }
    },
    "v1GetUsersResponse": {
      "type": "object",
      "properties": {
        "usersSettings": {
          "type": "array",
          "items": {
            "$ref": "#/definitions/v1UserSetting"
          }
        }
      }
    },
    "v1SetChatsRequest": {
      "type": "object",
      "properties": {
        "chatId": {
          "type": "string"
        },
        "settings": {
          "type": "object",
          "additionalProperties": {
            "$ref": "#/definitions/v1SetSetting"
          }
        }
      }
    },
    "v1SetChatsResponse": {
      "type": "object",
      "properties": {
        "timestamp": {
          "type": "string",
          "format": "date-time"
        }
      }
    },
    "v1SetChatsTypesRequest": {
      "type": "object",
      "properties": {
        "chatType": {
          "$ref": "#/definitions/v2ChatType"
        },
        "userType": {
          "$ref": "#/definitions/v2UserType"
        },
        "settings": {
          "type": "object",
          "additionalProperties": {
            "$ref": "#/definitions/v1SetSetting"
          }
        }
      }
    },
    "v1SetChatsTypesResponse": {
      "type": "object",
      "properties": {
        "timestamp": {
          "type": "string",
          "format": "date-time"
        }
      }
    },
    "v1SetSetting": {
      "type": "object",
      "properties": {
        "value": {
          "$ref": "#/definitions/messenger_settingsv1Value"
        },
        "tags": {
          "type": "array",
          "items": {
            "type": "string"
          }
        }
      }
    },
    "v1SetUsersChatsRequest": {
      "type": "object",
      "properties": {
        "chatId": {
          "type": "string"
        },
        "user": {
          "$ref": "#/definitions/v2User"
        },
        "settings": {
          "type": "object",
          "additionalProperties": {
            "$ref": "#/definitions/v1SetSetting"
          }
        }
      }
    },
    "v1SetUsersChatsResponse": {
      "type": "object",
      "properties": {
        "timestamp": {
          "type": "string",
          "format": "date-time"
        }
      }
    },
    "v1SetUsersRequest": {
      "type": "object",
      "properties": {
        "user": {
          "$ref": "#/definitions/v2User"
        },
        "settings": {
          "type": "object",
          "additionalProperties": {
            "$ref": "#/definitions/v1SetSetting"
          }
        }
      }
    },
    "v1SetUsersResponse": {
      "type": "object",
      "properties": {
        "timestamp": {
          "type": "string",
          "format": "date-time"
        }
      }
    },
    "v1Setting": {
      "type": "object",
      "properties": {
        "value": {
          "$ref": "#/definitions/messenger_settingsv1Value"
        },
        "lastUpdateAt": {
          "type": "string",
          "format": "date-time"
        },
        "tags": {
          "type": "array",
          "items": {
            "type": "string"
          }
        }
      }
    },
    "v1Settings": {
      "type": "object",
      "properties": {
        "timestamp": {
          "type": "string",
          "format": "date-time"
        },
        "settings": {
          "type": "object",
          "additionalProperties": {
            "$ref": "#/definitions/v1Setting"
          }
        }
      }
    },
    "v1UserChatSetting": {
      "type": "object",
      "properties": {
        "user": {
          "$ref": "#/definitions/v2User"
        },
        "chatId": {
          "type": "string"
        },
        "settings": {
          "$ref": "#/definitions/v1Settings"
        }
      }
    },
    "v1UserSetting": {
      "type": "object",
      "properties": {
        "user": {
          "$ref": "#/definitions/v2User"
        },
        "settings": {
          "$ref": "#/definitions/v1Settings"
        }
      }
    },
    "v2ChatType": {
      "type": "string",
      "enum": [
        "InvalidChat",
        "Buyer_Support",
        "Buyer_Buyer",
        "Buyer_Seller",
        "Seller_Support",
        "Buyer_Travel",
        "OProfit",
        "Notification_Orders",
        "Notification_Subscriptions",
        "Notification_Promo",
        "Notification_Questions",
        "TurboPVZ_Support",
        "Customer_Customer",
        "Principal_Support"
      ],
      "default": "InvalidChat",
      "title": "- Buyer_Support: previously known as CCRM\n - Buyer_Buyer: use Customer_Customer\n - Buyer_Seller: previously known as CS"
    },
    "v2User": {
      "type": "object",
      "properties": {
        "type": {
          "$ref": "#/definitions/v2UserType"
        },
        "id": {
          "type": "string"
        }
      },
      "title": "pair (type, id) uniquely identifies user"
    },
    "v2UserType": {
      "type": "string",
      "enum": [
        "InvalidUser",
        "Customer",
        "Seller",
        "Support",
        "Courier",
        "ChatBot",
        "TravelSupport",
        "OProfitUser",
        "NotificationUser",
        "OperatorTPVZ",
        "Principal"
      ],
      "default": "InvalidUser"
    }
  }
}
